{
  "status": "success",
  "data": {
    "page": 2,
    "per_page": 3,
    "total_pages": 5,
    "total_items": 14,
    "items": [
      {
        "id": 101,
        "title": "Understanding JSONLoader",
        "content": "This article explains how to parse API responses...",
        "author": {
          "id": "user_1",
          "name": "Alice"
        },
        "created_at": "2023-10-05T08:12:33Z"
      },
      {
        "id": 102,
        "title": "Advanced jq Schema Patterns",
        "content": "Learn to handle nested structures with...",
        "author": {
          "id": "user_2",
          "name": "Bob"
        },
        "created_at": "2023-10-05T09:15:21Z"
      },
      {
        "id": 103,
        "title": "LangChain Metadata Handling",
        "content": "Best practices for preserving metadata...",
        "author": {
          "id": "user_3",
          "name": "Charlie"
        },
        "created_at": "2023-10-05T10:03:47Z"
      }
    ]
  }
}